Graphics in R: ggplot
…
So, we need to rethink how we are plotting these data if we want to use shape. One option is to instead plot all 3 variables as shapes along depth. We would do so with the following setup. But what are our x and shape variables?

dat %>%
  ggplot(aes(x=?, y=Depth_m, shape=?)) +
  geom_point()

We actually have multiple variables that we want to input for x (oxygen, nitrate, hydrogen sulfide). So, what do we do?

This is where more tidyverse data manipulation can be used. Since we need a single variable to use as x, we need to gather our 3 geochemical variables into a single column. We also have to keep (but not gather) our future y-variable, i.e. Depth.

dat %>%
  select(Depth_m, O2_uM, NO3_uM, H2S_uM) %>% 
  gather(key="Chemical", value="Concentration", -Depth_m)

## # A tibble: 3,747 x 3
##    Depth_m Chemical Concentration
##      <dbl> <chr>            <dbl>
##  1      10 O2_uM            225. 
##  2      20 O2_uM            221. 
##  3      40 O2_uM            202. 
##  4      60 O2_uM            198. 
##  5      75 O2_uM            194. 
##  6      85 O2_uM            150. 
##  7      90 O2_uM            122. 
##  8      97 O2_uM            108. 
##  9     100 O2_uM             99.8
## 10     110 O2_uM             39.6
## # ... with 3,737 more rows
…
